Running CPAchecker with Java heap of size 27768M.
Running CPAchecker with default stack size (1024k). Specify a larger value with -stack if needed.
Using the following resource limits: CPU-time limit of 43200s (ResourceLimitChecker.fromConfiguration, INFO)

CPAchecker 1.8 (OpenJDK 64-Bit Server VM 1.8.0_161) started (CPAchecker.run, INFO)

line 386: Dead code detected: finally(); (CFACreationUtils.addEdgeToCFA, INFO)

MathSAT5 is available for research and evaluation purposes only. It can not be used in a commercial environment, particularly as part of a commercial product, without written permission. MathSAT5 is provided as is, without any warranty. Please write to mathsat@fbk.eu for additional questions regarding licensing MathSAT5 or obtaining more up-to-date versions. (PredicateCPA:JavaSMT:Mathsat5SolverContext.<init>, WARNING)

Using predicate analysis with MathSAT5 version 5.5.3 (9dddce7e8e79) (Nov 20 2018 09:56:20, gmp 6.1.0, gcc 4.8.5, 64-bit, reentrant) and JFactory 1.21. (PredicateCPA:PredicateCPA.<init>, INFO)

MathSAT5 is available for research and evaluation purposes only. It can not be used in a commercial environment, particularly as part of a commercial product, without written permission. MathSAT5 is provided as is, without any warranty. Please write to mathsat@fbk.eu for additional questions regarding licensing MathSAT5 or obtaining more up-to-date versions. (ARGCPA:JavaSMT:Mathsat5SolverContext.<init>, WARNING)

MathSAT5 is available for research and evaluation purposes only. It can not be used in a commercial environment, particularly as part of a commercial product, without written permission. MathSAT5 is provided as is, without any warranty. Please write to mathsat@fbk.eu for additional questions regarding licensing MathSAT5 or obtaining more up-to-date versions. (ARGCPA:JavaSMT:Mathsat5SolverContext.<init>, WARNING)

Using refinement for predicate analysis with PredicateAbstractionRefinementStrategy strategy. (PredicateCPA:PredicateCPARefiner.<init>, INFO)

Starting analysis ... (CPAchecker.runAlgorithm, INFO)

terminate called after throwing an instance of 'std::bad_alloc'
  what():  std::bad_alloc
Command terminated by signal 6
1772.25user 2.17system 29:12.73elapsed 101%CPU (0avgtext+0avgdata 957660maxresident)k
0inputs+488outputs (0major+317186minor)pagefaults 0swaps

ulimit -Sv 33554432 && timeout 43200 /usr/bin/time ../tools/CPAchecker-1.8-unix/scripts/cpa.sh -predicateAnalysis -heap 27768M -timelimit 43200 /workspace/buzz/labs/esop/majority_0_yes1no2.pcswitch-noarray.cpa.c
6
